{
	"meta": {
		"limit": 20,
		"next": "/api/v5/appso/article/?platform=android&limit=20&offset=20",
		"offset": 0,
		"previous": null,
		"total_count": 2241
	},
	"objects": [
		{
			"cover_image": {
				"id": 213036,
				"image": "http://ifanr-cdn.b0.upaiyun.com/wp-content/uploads/2017/05/cellular-education-classroom-159844.jpeg"
			},
			"created_by": {
				"avatar": "https://media.ifanrusercontent.com/media/user_files/uploaded/b7/b8/b7b87197c4a85079f112933ad516336fca148d9b-668855e9903253039825e352b3a46b30ae2cb3c4.jpg",
				"id": 30248815,
				"nickname": "AppSo"
			},
			"id": 8403,
			"published_at": 1495433425,
			"title": "下了一堆在线课程却没听？这 3 个步骤能救你"
		}, {
			"cover_image": {
				"id": 213033,
				"image": "http://ifanr-cdn.b0.upaiyun.com/wp-content/uploads/2017/05/Photo-09-12-2014-06-25-44-1.jpg"
			},
			"created_by": {
				"avatar": "https://media.ifanrusercontent.com/media/user_files/uploaded/9a/8f/9a8f23155ff0bf392753aa2c27365b0eedd850cb-cd88f7f6780fbb4857e5c6047cd2862edd5b23fe.jpg",
				"id": 29172763,
				"nickname": "rishenh"
			},
			"id": 8401,
			"published_at": 1495427917,
			"title": "Bit City : 这个永远不会破产的「模拟城市」，让你成为人生赢家"
		}, {
			"cover_image": {
				"id": 212830,
				"image": "http://ifanr-cdn.b0.upaiyun.com/wp-content/uploads/2017/05/tuty.jpg"
			},
			"created_by": {
				"avatar": "http://gravatar.ifanrx.com/avatar/8b69bb7b0197e1276e569db060f6df42?d=http%3A%2F%2Fcdn.ifanr.cn%2Fifanr%2Fdefault_avatar.png",
				"id": 30398876,
				"nickname": "希特喵"
			},
			"id": 8399,
			"published_at": 1495339270,
			"title": "Seer : 让 Windows 和 macOS 一样，用空格快速预览"
		}, {
			"cover_image": {
				"id": 212732,
				"image": "http://ifanr-cdn.b0.upaiyun.com/wp-content/uploads/2017/05/cover1-1-1024x640.jpg"
			},
			"created_by": {
				"avatar": "http://cdn.ifanr.cn/appso/ajun.jpg",
				"id": 20602073,
				"nickname": "A 君"
			},
			"id": 8397,
			"published_at": 1495288008,
			"title": "怎么自定义 iPhone 小圆点布局？/Android 如何用上小圆点？| 有轻功 073"
		}, {
			"cover_image": {
				"id": 212731,
				"image": "http://ifanr-cdn.b0.upaiyun.com/wp-content/uploads/2017/05/titu-4.jpg"
			},
			"created_by": {
				"avatar": "http://gravatar.ifanrx.com/avatar/7d01084a90760e3804ede1830e87d909?d=http%3A%2F%2Fcdn.ifanr.cn%2Fifanr%2Fdefault_avatar.png",
				"id": 33066609,
				"nickname": "Draker"
			},
			"id": 8396,
			"published_at": 1495287957,
			"title": "Blind Drive：闭着眼睛开车，这是我玩过最绝望的游戏"
		}, {
			"cover_image": {
				"id": 207268,
				"image": "http://ifanr-cdn.b0.upaiyun.com/wp-content/uploads/2017/04/img-1.jpg"
			},
			"created_by": {
				"avatar": "https://media.ifanrusercontent.com/media/user_files/uploaded/6b/0a/6b0a944c76206a864f3379be9e6802fdd179a958-9efef556d49487c047cb2a3ae333b215e1813e55.jpg",
				"id": 25439730,
				"nickname": "Shirley"
			},
			"id": 8395,
			"published_at": 1495287874,
			"title": "实名注册如何避免隐私泄露/手机被偷如何找回/App Store 换区方法 | A 君解忧室"
		}, {
			"cover_image": {
				"id": 212346,
				"image": "http://ifanr-cdn.b0.upaiyun.com/wp-content/uploads/2017/05/cover2-1.jpg"
			},
			"created_by": {
				"avatar": "https://media.ifanrusercontent.com/media/tavatar/3f/79/3f79306e9fa36b7512a61397d1a3a19176f2b06d.jpg",
				"id": 24311990,
				"nickname": "蛤蜊炖蛋"
			},
			"id": 8394,
			"published_at": 1495254781,
			"title": "酒馆纷争：这款烧脑的策略游戏，智商低就别玩了"
		}, {
			"cover_image": {
				"id": 211975,
				"image": "http://ifanr-cdn.b0.upaiyun.com/wp-content/uploads/2017/05/2017-1024x640.jpg"
			},
			"created_by": {
				"avatar": "https://media.ifanrusercontent.com/media/user_files/uploaded/6b/0a/6b0a944c76206a864f3379be9e6802fdd179a958-9efef556d49487c047cb2a3ae333b215e1813e55.jpg",
				"id": 25439730,
				"nickname": "Shirley"
			},
			"id": 8393,
			"published_at": 1495171875,
			"title": "先睹为快！Google 刚给这 12 个 App 颁了奖"
		}, {
			"cover_image": {
				"id": 211974,
				"image": "http://ifanr-cdn.b0.upaiyun.com/wp-content/uploads/2017/05/androidinstantapps-cover.jpg"
			},
			"created_by": {
				"avatar": "https://media.ifanrusercontent.com/media/user_files/uploaded/29/b8/29b84db52ff927b22fa26ad7fcf34582f2810b0b-deba8876529a609455d22e1b2e73f027e1255c5d.jpg",
				"id": 26893063,
				"nickname": "珊爷"
			},
			"id": 8392,
			"published_at": 1495171559,
			"title": "Google 版小程序来了！你也可以开发"
		}, {
			"cover_image": {
				"id": 211826,
				"image": "http://ifanr-cdn.b0.upaiyun.com/wp-content/uploads/2017/05/imac-apple-mockup-app-38544.jpeg"
			},
			"created_by": {
				"avatar": "https://media.ifanrusercontent.com/media/user_files/uploaded/b7/b8/b7b87197c4a85079f112933ad516336fca148d9b-668855e9903253039825e352b3a46b30ae2cb3c4.jpg",
				"id": 30248815,
				"nickname": "AppSo"
			},
			"id": 8391,
			"published_at": 1495157479,
			"title": "就是这些流氓 App！它们在拖慢你的手机 | 自爆区"
		}, {
			"cover_image": {
				"id": 211561,
				"image": "http://ifanr-cdn.b0.upaiyun.com/wp-content/uploads/2017/05/cover3-1024x640.jpg"
			},
			"created_by": {
				"avatar": "https://media.ifanrusercontent.com/media/user_files/uploaded/6b/0a/6b0a944c76206a864f3379be9e6802fdd179a958-9efef556d49487c047cb2a3ae333b215e1813e55.jpg",
				"id": 25439730,
				"nickname": "Shirley"
			},
			"id": 8390,
			"published_at": 1495080476,
			"title": "怎样用手机给另一半低成本地制造惊喜？ | 有轻功 072"
		}, {
			"cover_image": {
				"id": 211559,
				"image": "http://ifanr-cdn.b0.upaiyun.com/wp-content/uploads/2017/05/vladsavov-live_318.jpg"
			},
			"created_by": {
				"avatar": "https://media.ifanrusercontent.com/media/user_files/uploaded/6b/0a/6b0a944c76206a864f3379be9e6802fdd179a958-9efef556d49487c047cb2a3ae333b215e1813e55.jpg",
				"id": 25439730,
				"nickname": "Shirley"
			},
			"id": 8388,
			"published_at": 1495080417,
			"title": "Google 和苹果智能助手，在 iPhone 上正面对决了！"
		}, {
			"cover_image": {
				"id": 211560,
				"image": "http://ifanr-cdn.b0.upaiyun.com/wp-content/uploads/2017/05/image7.jpg"
			},
			"created_by": {
				"avatar": "https://media.ifanrusercontent.com/media/user_files/uploaded/29/b8/29b84db52ff927b22fa26ad7fcf34582f2810b0b-deba8876529a609455d22e1b2e73f027e1255c5d.jpg",
				"id": 26893063,
				"nickname": "珊爷"
			},
			"id": 8389,
			"published_at": 1495080226,
			"title": "10 张图带你毫不费力逛遍 Google I/O | 图赏"
		}, {
			"cover_image": {
				"id": 210559,
				"image": "http://ifanr-cdn.b0.upaiyun.com/wp-content/uploads/2017/05/111-10.jpg"
			},
			"created_by": {
				"avatar": "http://tp4.sinaimg.cn/1820700123/180/5671640796/1",
				"id": 5851295,
				"nickname": "蓝焰的小蜗牛"
			},
			"id": 8386,
			"published_at": 1495024370,
			"title": "独家：拯救卡顿的安卓手机，你一定想问这 7 件事 | 绿色应用公约"
		}, {
			"cover_image": {
				"id": 191526,
				"image": "http://ifanr-cdn.b0.upaiyun.com/wp-content/uploads/2017/02/tengxunheqq.jpg"
			},
			"created_by": {
				"avatar": "http://cdn.ifanr.cn/appso/ajun.jpg",
				"id": 20602073,
				"nickname": "A 君"
			},
			"id": 8385,
			"published_at": 1495016698,
			"title": "[今日讨论] 这个「流氓」App，我恨不得把它千刀万剐"
		}, {
			"cover_image": {
				"id": 211275,
				"image": "http://ifanr-cdn.b0.upaiyun.com/wp-content/uploads/2017/05/0-5.jpg"
			},
			"created_by": {
				"avatar": "http://gravatar.ifanrx.com/avatar/8b69bb7b0197e1276e569db060f6df42?d=http%3A%2F%2Fcdn.ifanr.cn%2Fifanr%2Fdefault_avatar.png",
				"id": 30398876,
				"nickname": "希特喵"
			},
			"id": 8384,
			"published_at": 1495005563,
			"title": "ComIntRep：一键排查，小白也能修复难搞的电脑网络问题"
		}, {
			"cover_image": {
				"id": 211273,
				"image": "http://ifanr-cdn.b0.upaiyun.com/wp-content/uploads/2017/05/cover-7-1024x640.jpg"
			},
			"created_by": {
				"avatar": "http://cdn.ifanr.cn/appso/ajun.jpg",
				"id": 20602073,
				"nickname": "A 君"
			},
			"id": 8383,
			"published_at": 1494996072,
			"title": "iOS 邮箱还能这样玩转 PDF？/ 如何一键按颜色排列 Android 桌面 App | 有轻功 071"
		}, {
			"cover_image": {
				"id": 211272,
				"image": "http://ifanr-cdn.b0.upaiyun.com/wp-content/uploads/2017/05/www.pakutaso.com-shared-img-thumb-YK0I9A6205.jpg"
			},
			"created_by": {
				"avatar": "https://media.ifanrusercontent.com/media/user_files/uploaded/29/b8/29b84db52ff927b22fa26ad7fcf34582f2810b0b-deba8876529a609455d22e1b2e73f027e1255c5d.jpg",
				"id": 26893063,
				"nickname": "珊爷"
			},
			"id": 8382,
			"published_at": 1494995470,
			"title": "收藏文章总忘了读？它或许是最棒的国产阅读神器 - 收趣"
		}, {
			"cover_image": {
				"id": 210985,
				"image": "http://ifanr-cdn.b0.upaiyun.com/wp-content/uploads/2017/05/clem-onojeghuo-208277.jpg"
			},
			"created_by": {
				"avatar": "http://tp4.sinaimg.cn/1820700123/180/5671640796/1",
				"id": 5851295,
				"nickname": "蓝焰的小蜗牛"
			},
			"id": 8380,
			"published_at": 1494935519,
			"title": "Just Rain：想随时随地听雨的声音？有这个 App 就够了"
		}, {
			"cover_image": {
				"id": 210986,
				"image": "http://ifanr-cdn.b0.upaiyun.com/wp-content/uploads/2017/05/113-1024x681.jpg"
			},
			"created_by": {
				"avatar": "https://media.ifanrusercontent.com/media/user_files/uploaded/6b/0a/6b0a944c76206a864f3379be9e6802fdd179a958-9efef556d49487c047cb2a3ae333b215e1813e55.jpg",
				"id": 25439730,
				"nickname": "Shirley"
			},
			"id": 8381,
			"published_at": 1494935092,
			"title": "5 个实用的苹果 iWork 技巧，你绝对不知道"
		}
	]
}